%YAML 1.1
%TAG !u! tag:unity3d.com,2011:
--- !u!29 &1
OcclusionCullingSettings:
  m_ObjectHideFlags: 0
  serializedVersion: 2
  m_OcclusionBakeSettings:
    smallestOccluder: 5
    smallestHole: 0.25
    backfaceThreshold: 100
  m_SceneGUID: 00000000000000000000000000000000
  m_OcclusionCullingData: {fileID: 0}
--- !u!104 &2
RenderSettings:
  m_ObjectHideFlags: 0
  serializedVersion: 8
  m_Fog: 0
  m_FogColor: {r: 0.5, g: 0.5, b: 0.5, a: 1}
  m_FogMode: 3
  m_FogDensity: 0.01
  m_LinearFogStart: 0
  m_LinearFogEnd: 300
  m_AmbientSkyColor: {r: 0.212, g: 0.227, b: 0.259, a: 1}
  m_AmbientEquatorColor: {r: 0.114, g: 0.125, b: 0.133, a: 1}
  m_AmbientGroundColor: {r: 0.047, g: 0.043, b: 0.035, a: 1}
  m_AmbientIntensity: 1
  m_AmbientMode: 0
  m_SubtractiveShadowColor: {r: 0.42, g: 0.478, b: 0.627, a: 1}
  m_SkyboxMaterial: {fileID: 10304, guid: 0000000000000000f000000000000000, type: 0}
  m_HaloStrength: 0.5
  m_FlareStrength: 1
  m_FlareFadeSpeed: 3
  m_HaloTexture: {fileID: 0}
  m_SpotCookie: {fileID: 10001, guid: 0000000000000000e000000000000000, type: 0}
  m_DefaultReflectionMode: 0
  m_DefaultReflectionResolution: 512
  m_ReflectionBounces: 1
  m_ReflectionIntensity: 1
  m_CustomReflection: {fileID: 0}
  m_Sun: {fileID: 1492631277}
  m_IndirectSpecularColor: {r: 0.44657868, g: 0.49641585, b: 0.5748187, a: 1}
--- !u!157 &3
LightmapSettings:
  m_ObjectHideFlags: 0
  serializedVersion: 11
  m_GIWorkflowMode: 1
  m_GISettings:
    serializedVersion: 2
    m_BounceScale: 1
    m_IndirectOutputScale: 1
    m_AlbedoBoost: 1
    m_TemporalCoherenceThreshold: 1
    m_EnvironmentLightingMode: 0
    m_EnableBakedLightmaps: 1
    m_EnableRealtimeLightmaps: 1
  m_LightmapEditorSettings:
    serializedVersion: 9
    m_Resolution: 2
    m_BakeResolution: 40
    m_TextureWidth: 1024
    m_TextureHeight: 1024
    m_AO: 1
    m_AOMaxDistance: 1
    m_CompAOExponent: 1
    m_CompAOExponentDirect: 0
    m_Padding: 2
    m_LightmapParameters: {fileID: 0}
    m_LightmapsBakeMode: 1
    m_TextureCompression: 1
    m_FinalGather: 1
    m_FinalGatherFiltering: 1
    m_FinalGatherRayCount: 256
    m_ReflectionCompression: 2
    m_MixedBakeMode: 2
    m_BakeBackend: 0
    m_PVRSampling: 1
    m_PVRDirectSampleCount: 32
    m_PVRSampleCount: 500
    m_PVRBounces: 2
    m_PVRFilterTypeDirect: 0
    m_PVRFilterTypeIndirect: 0
    m_PVRFilterTypeAO: 0
    m_PVRFilteringMode: 1
    m_PVRCulling: 1
    m_PVRFilteringGaussRadiusDirect: 1
    m_PVRFilteringGaussRadiusIndirect: 5
    m_PVRFilteringGaussRadiusAO: 2
    m_PVRFilteringAtrousPositionSigmaDirect: 0.5
    m_PVRFilteringAtrousPositionSigmaIndirect: 2
    m_PVRFilteringAtrousPositionSigmaAO: 1
    m_ShowResolutionOverlay: 1
  m_LightingDataAsset: {fileID: 112000020, guid: 301fa3d78c87df84189737ace4714045,
    type: 2}
  m_UseShadowmask: 1
--- !u!196 &4
NavMeshSettings:
  serializedVersion: 2
  m_ObjectHideFlags: 0
  m_BuildSettings:
    serializedVersion: 2
    agentTypeID: 0
    agentRadius: 0.5
    agentHeight: 2
    agentSlope: 45
    agentClimb: 0.4
    ledgeDropHeight: 0
    maxJumpAcrossDistance: 0
    minRegionArea: 2
    manualCellSize: 0
    cellSize: 0.16666667
    manualTileSize: 0
    tileSize: 256
    accuratePlacement: 0
    debug:
      m_Flags: 0
  m_NavMeshData: {fileID: 0}
--- !u!1 &100837844
GameObject:
  m_ObjectHideFlags: 0
  m_PrefabParentObject: {fileID: 0}
  m_PrefabInternal: {fileID: 0}
  serializedVersion: 5
  m_Component:
  - component: {fileID: 100837846}
  - component: {fileID: 100837845}
  m_Layer: 0
  m_Name: Reflection Probe
  m_TagString: Untagged
  m_Icon: {fileID: 0}
  m_NavMeshLayer: 0
  m_StaticEditorFlags: 0
  m_IsActive: 1
--- !u!215 &100837845
ReflectionProbe:
  m_ObjectHideFlags: 0
  m_PrefabParentObject: {fileID: 0}
  m_PrefabInternal: {fileID: 0}
  m_GameObject: {fileID: 100837844}
  m_Enabled: 1
  serializedVersion: 2
  m_Type: 0
  m_Mode: 1
  m_RefreshMode: 0
  m_TimeSlicingMode: 0
  m_Resolution: 128
  m_UpdateFrequency: 0
  m_BoxSize: {x: 10, y: 10, z: 10}
  m_BoxOffset: {x: 0, y: 0, z: 0}
  m_NearClip: 0.3
  m_FarClip: 1000
  m_ShadowDistance: 100
  m_ClearFlags: 1
  m_BackGroundColor: {r: 0.19215687, g: 0.3019608, b: 0.4745098, a: 0}
  m_CullingMask:
    serializedVersion: 2
    m_Bits: 4294967295
  m_IntensityMultiplier: 1
  m_BlendDistance: 1
  m_HDR: 1
  m_BoxProjection: 0
  m_RenderDynamicObjects: 0
  m_UseOcclusionCulling: 1
  m_Importance: 1
  m_CustomBakedTexture: {fileID: 0}
--- !u!4 &100837846
Transform:
  m_ObjectHideFlags: 0
  m_PrefabParentObject: {fileID: 0}
  m_PrefabInternal: {fileID: 0}
  m_GameObject: {fileID: 100837844}
  m_LocalRotation: {x: 0, y: 0, z: 0, w: 1}
  m_LocalPosition: {x: -0.1, y: 1.05, z: 1}
  m_LocalScale: {x: 1, y: 1, z: 1}
  m_Children: []
  m_Father: {fileID: 0}
  m_RootOrder: 6
  m_LocalEulerAnglesHint: {x: 0, y: 0, z: 0}
--- !u!1 &141503673
GameObject:
  m_ObjectHideFlags: 0
  m_PrefabParentObject: {fileID: 0}
  m_PrefabInternal: {fileID: 0}
  serializedVersion: 5
  m_Component:
  - component: {fileID: 141503677}
  - component: {fileID: 141503676}
  - component: {fileID: 141503675}
  - component: {fileID: 141503674}
  m_Layer: 0
  m_Name: Cube (1)
  m_TagString: Untagged
  m_Icon: {fileID: 0}
  m_NavMeshLayer: 0
  m_StaticEditorFlags: 4294967295
  m_IsActive: 1
--- !u!23 &141503674
MeshRenderer:
  m_ObjectHideFlags: 0
  m_PrefabParentObject: {fileID: 0}
  m_PrefabInternal: {fileID: 0}
  m_GameObject: {fileID: 141503673}
  m_Enabled: 1
  m_CastShadows: 1
  m_ReceiveShadows: 1
  m_DynamicOccludee: 1
  m_MotionVectors: 1
  m_LightProbeUsage: 1
  m_ReflectionProbeUsage: 1
  m_Materials:
  - {fileID: 2100000, guid: ecc662582beced44bbf6ea31834afb0e, type: 2}
  m_StaticBatchInfo:
    firstSubMesh: 0
    subMeshCount: 0
  m_StaticBatchRoot: {fileID: 0}
  m_ProbeAnchor: {fileID: 0}
  m_LightProbeVolumeOverride: {fileID: 0}
  m_ScaleInLightmap: 1
  m_PreserveUVs: 1
  m_IgnoreNormalsForChartDetection: 0
  m_ImportantGI: 0
  m_StitchLightmapSeams: 0
  m_SelectedEditorRenderState: 3
  m_MinimumChartSize: 4
  m_AutoUVMaxDistance: 0.5
  m_AutoUVMaxAngle: 89
  m_LightmapParameters: {fileID: 0}
  m_SortingLayerID: 0
  m_SortingLayer: 0
  m_SortingOrder: 0
--- !u!65 &141503675
BoxCollider:
  m_ObjectHideFlags: 0
  m_PrefabParentObject: {fileID: 0}
  m_PrefabInternal: {fileID: 0}
  m_GameObject: {fileID: 141503673}
  m_Material: {fileID: 0}
  m_IsTrigger: 0
  m_Enabled: 1
  serializedVersion: 2
  m_Size: {x: 1, y: 1, z: 1}
  m_Center: {x: 0, y: 0, z: 0}
--- !u!33 &141503676
MeshFilter:
  m_ObjectHideFlags: 0
  m_PrefabParentObject: {fileID: 0}
  m_PrefabInternal: {fileID: 0}
  m_GameObject: {fileID: 141503673}
  m_Mesh: {fileID: 10202, guid: 0000000000000000e000000000000000, type: 0}
--- !u!4 &141503677
Transform:
  m_ObjectHideFlags: 0
  m_PrefabParentObject: {fileID: 0}
  m_PrefabInternal: {fileID: 0}
  m_GameObject: {fileID: 141503673}
  m_LocalRotation: {x: 0.7071068, y: 0, z: 0, w: 0.7071068}
  m_LocalPosition: {x: -0.365, y: 1.184, z: -0.507}
  m_LocalScale: {x: 3.7149637, y: 0.062084492, z: 2.6065922}
  m_Children: []
  m_Father: {fileID: 0}
  m_RootOrder: 5
  m_LocalEulerAnglesHint: {x: 90, y: 0, z: 0}
--- !u!1 &261659525
GameObject:
  m_ObjectHideFlags: 0
  m_PrefabParentObject: {fileID: 0}
  m_PrefabInternal: {fileID: 0}
  serializedVersion: 5
  m_Component:
  - component: {fileID: 261659529}
  - component: {fileID: 261659528}
  - component: {fileID: 261659527}
  - component: {fileID: 261659526}
  m_Layer: 0
  m_Name: Cube (2)
  m_TagString: Untagged
  m_Icon: {fileID: 0}
  m_NavMeshLayer: 0
  m_StaticEditorFlags: 4294967295
  m_IsActive: 1
--- !u!23 &261659526
MeshRenderer:
  m_ObjectHideFlags: 0
  m_PrefabParentObject: {fileID: 0}
  m_PrefabInternal: {fileID: 0}
  m_GameObject: {fileID: 261659525}
  m_Enabled: 1
  m_CastShadows: 1
  m_ReceiveShadows: 1
  m_DynamicOccludee: 1
  m_MotionVectors: 1
  m_LightProbeUsage: 1
  m_ReflectionProbeUsage: 1
  m_Materials:
  - {fileID: 2100000, guid: ecc662582beced44bbf6ea31834afb0e, type: 2}
  m_StaticBatchInfo:
    firstSubMesh: 0
    subMeshCount: 0
  m_StaticBatchRoot: {fileID: 0}
  m_ProbeAnchor: {fileID: 0}
  m_LightProbeVolumeOverride: {fileID: 0}
  m_ScaleInLightmap: 1
  m_PreserveUVs: 1
  m_IgnoreNormalsForChartDetection: 0
  m_ImportantGI: 0
  m_StitchLightmapSeams: 0
  m_SelectedEditorRenderState: 3
  m_MinimumChartSize: 4
  m_AutoUVMaxDistance: 0.5
  m_AutoUVMaxAngle: 89
  m_LightmapParameters: {fileID: 0}
  m_SortingLayerID: 0
  m_SortingLayer: 0
  m_SortingOrder: 0
--- !u!65 &261659527
BoxCollider:
  m_ObjectHideFlags: 0
  m_PrefabParentObject: {fileID: 0}
  m_PrefabInternal: {fileID: 0}
  m_GameObject: {fileID: 261659525}
  m_Material: {fileID: 0}
  m_IsTrigger: 0
  m_Enabled: 1
  serializedVersion: 2
  m_Size: {x: 1, y: 1, z: 1}
  m_Center: {x: 0, y: 0, z: 0}
--- !u!33 &261659528
MeshFilter:
  m_ObjectHideFlags: 0
  m_PrefabParentObject: {fileID: 0}
  m_PrefabInternal: {fileID: 0}
  m_GameObject: {fileID: 261659525}
  m_Mesh: {fileID: 10202, guid: 0000000000000000e000000000000000, type: 0}
--- !u!4 &261659529
Transform:
  m_ObjectHideFlags: 0
  m_PrefabParentObject: {fileID: 0}
  m_PrefabInternal: {fileID: 0}
  m_GameObject: {fileID: 261659525}
  m_LocalRotation: {x: 0.50000006, y: -0.50000006, z: 0.5, w: 0.5}
  m_LocalPosition: {x: -2.086, y: 1.184, z: -0.507}
  m_LocalScale: {x: 3.7149637, y: 0.062084492, z: 2.6065922}
  m_Children: []
  m_Father: {fileID: 0}
  m_RootOrder: 7
  m_LocalEulerAnglesHint: {x: 90.00001, y: 0, z: 90}
--- !u!1 &515151475
GameObject:
  m_ObjectHideFlags: 0
  m_PrefabParentObject: {fileID: 1204303918740858, guid: b032703654057b84683de4e36d419b65,
    type: 2}
  m_PrefabInternal: {fileID: 1400478136}
  serializedVersion: 5
  m_Component:
  - component: {fileID: 515151480}
  - component: {fileID: 515151479}
  - component: {fileID: 515151478}
  - component: {fileID: 515151477}
  - component: {fileID: 515151476}
  m_Layer: 0
  m_Name: Leather_Chair
  m_TagString: Untagged
  m_Icon: {fileID: 0}
  m_NavMeshLayer: 0
  m_StaticEditorFlags: 4294967295
  m_IsActive: 1
--- !u!64 &515151476
MeshCollider:
  m_ObjectHideFlags: 0
  m_PrefabParentObject: {fileID: 64441089882923944, guid: b032703654057b84683de4e36d419b65,
    type: 2}
  m_PrefabInternal: {fileID: 1400478136}
  m_GameObject: {fileID: 515151475}
  m_Material: {fileID: 0}
  m_IsTrigger: 0
  m_Enabled: 1
  serializedVersion: 3
  m_Convex: 1
  m_CookingOptions: 15
  m_SkinWidth: 0.01
  m_Mesh: {fileID: 4300000, guid: beaec58dba29dea48acd77235061579e, type: 3}
--- !u!95 &515151477
Animator:
  serializedVersion: 3
  m_ObjectHideFlags: 0
  m_PrefabParentObject: {fileID: 95493463368719108, guid: b032703654057b84683de4e36d419b65,
    type: 2}
  m_PrefabInternal: {fileID: 1400478136}
  m_GameObject: {fileID: 515151475}
  m_Enabled: 1
  m_Avatar: {fileID: 9000000, guid: beaec58dba29dea48acd77235061579e, type: 3}
  m_Controller: {fileID: 0}
  m_CullingMode: 0
  m_UpdateMode: 0
  m_ApplyRootMotion: 0
  m_LinearVelocityBlending: 0
  m_WarningMessage: 
  m_HasTransformHierarchy: 1
  m_AllowConstantClipSamplingOptimization: 1
--- !u!23 &515151478
MeshRenderer:
  m_ObjectHideFlags: 0
  m_PrefabParentObject: {fileID: 23063208507258850, guid: b032703654057b84683de4e36d419b65,
    type: 2}
  m_PrefabInternal: {fileID: 1400478136}
  m_GameObject: {fileID: 515151475}
  m_Enabled: 1
  m_CastShadows: 1
  m_ReceiveShadows: 1
  m_DynamicOccludee: 1
  m_MotionVectors: 1
  m_LightProbeUsage: 1
  m_ReflectionProbeUsage: 1
  m_Materials:
  - {fileID: 2100000, guid: 8f44574c4d90c1842b17d7e68753dc22, type: 2}
  m_StaticBatchInfo:
    firstSubMesh: 0
    subMeshCount: 0
  m_StaticBatchRoot: {fileID: 0}
  m_ProbeAnchor: {fileID: 0}
  m_LightProbeVolumeOverride: {fileID: 0}
  m_ScaleInLightmap: 1
  m_PreserveUVs: 0
  m_IgnoreNormalsForChartDetection: 0
  m_ImportantGI: 0
  m_StitchLightmapSeams: 0
  m_SelectedEditorRenderState: 3
  m_MinimumChartSize: 4
  m_AutoUVMaxDistance: 0.5
  m_AutoUVMaxAngle: 89
  m_LightmapParameters: {fileID: 0}
  m_SortingLayerID: 0
  m_SortingLayer: 0
  m_SortingOrder: 0
--- !u!33 &515151479
MeshFilter:
  m_ObjectHideFlags: 0
  m_PrefabParentObject: {fileID: 33836906932623226, guid: b032703654057b84683de4e36d419b65,
    type: 2}
  m_PrefabInternal: {fileID: 1400478136}
  m_GameObject: {fileID: 515151475}
  m_Mesh: {fileID: 4300000, guid: beaec58dba29dea48acd77235061579e, type: 3}
--- !u!4 &515151480
Transform:
  m_ObjectHideFlags: 0
  m_PrefabParentObject: {fileID: 4004029968314860, guid: b032703654057b84683de4e36d419b65,
    type: 2}
  m_PrefabInternal: {fileID: 1400478136}
  m_GameObject: {fileID: 515151475}
  m_LocalRotation: {x: 0.000000020616133, y: 0.33198866, z: -0.000000007255844, w: 0.9432834}
  m_LocalPosition: {x: -0.495, y: 0.035, z: -0.06783068}
  m_LocalScale: {x: 1, y: 1, z: 1}
  m_Children: []
  m_Father: {fileID: 0}
  m_RootOrder: 2
  m_LocalEulerAnglesHint: {x: 0, y: 38.779003, z: 0}
--- !u!1 &613510782
GameObject:
  m_ObjectHideFlags: 0
  m_PrefabParentObject: {fileID: 1204303918740858, guid: b032703654057b84683de4e36d419b65,
    type: 2}
  m_PrefabInternal: {fileID: 1515519608}
  serializedVersion: 5
  m_Component:
  - component: {fileID: 613510787}
  - component: {fileID: 613510786}
  - component: {fileID: 613510785}
  - component: {fileID: 613510784}
  - component: {fileID: 613510783}
  m_Layer: 0
  m_Name: Leather_Chair (1)
  m_TagString: Untagged
  m_Icon: {fileID: 0}
  m_NavMeshLayer: 0
  m_StaticEditorFlags: 4294967295
  m_IsActive: 1
--- !u!64 &613510783
MeshCollider:
  m_ObjectHideFlags: 0
  m_PrefabParentObject: {fileID: 64441089882923944, guid: b032703654057b84683de4e36d419b65,
    type: 2}
  m_PrefabInternal: {fileID: 1515519608}
  m_GameObject: {fileID: 613510782}
  m_Material: {fileID: 0}
  m_IsTrigger: 0
  m_Enabled: 1
  serializedVersion: 3
  m_Convex: 1
  m_CookingOptions: 15
  m_SkinWidth: 0.01
  m_Mesh: {fileID: 4300000, guid: beaec58dba29dea48acd77235061579e, type: 3}
--- !u!95 &613510784
Animator:
  serializedVersion: 3
  m_ObjectHideFlags: 0
  m_PrefabParentObject: {fileID: 95493463368719108, guid: b032703654057b84683de4e36d419b65,
    type: 2}
  m_PrefabInternal: {fileID: 1515519608}
  m_GameObject: {fileID: 613510782}
  m_Enabled: 1
  m_Avatar: {fileID: 9000000, guid: beaec58dba29dea48acd77235061579e, type: 3}
  m_Controller: {fileID: 0}
  m_CullingMode: 0
  m_UpdateMode: 0
  m_ApplyRootMotion: 0
  m_LinearVelocityBlending: 0
  m_WarningMessage: 
  m_HasTransformHierarchy: 1
  m_AllowConstantClipSamplingOptimization: 1
--- !u!23 &613510785
MeshRenderer:
  m_ObjectHideFlags: 0
  m_PrefabParentObject: {fileID: 23063208507258850, guid: b032703654057b84683de4e36d419b65,
    type: 2}
  m_PrefabInternal: {fileID: 1515519608}
  m_GameObject: {fileID: 613510782}
  m_Enabled: 1
  m_CastShadows: 1
  m_ReceiveShadows: 1
  m_DynamicOccludee: 1
  m_MotionVectors: 1
  m_LightProbeUsage: 1
  m_ReflectionProbeUsage: 1
  m_Materials:
  - {fileID: 2100000, guid: 8f44574c4d90c1842b17d7e68753dc22, type: 2}
  m_StaticBatchInfo:
    firstSubMesh: 0
    subMeshCount: 0
  m_StaticBatchRoot: {fileID: 0}
  m_ProbeAnchor: {fileID: 0}
  m_LightProbeVolumeOverride: {fileID: 0}
  m_ScaleInLightmap: 1
  m_PreserveUVs: 0
  m_IgnoreNormalsForChartDetection: 0
  m_ImportantGI: 0
  m_StitchLightmapSeams: 0
  m_SelectedEditorRenderState: 3
  m_MinimumChartSize: 4
  m_AutoUVMaxDistance: 0.5
  m_AutoUVMaxAngle: 89
  m_LightmapParameters: {fileID: 0}
  m_SortingLayerID: 0
  m_SortingLayer: 0
  m_SortingOrder: 0
--- !u!33 &613510786
MeshFilter:
  m_ObjectHideFlags: 0
  m_PrefabParentObject: {fileID: 33836906932623226, guid: b032703654057b84683de4e36d419b65,
    type: 2}
  m_PrefabInternal: {fileID: 1515519608}
  m_GameObject: {fileID: 613510782}
  m_Mesh: {fileID: 4300000, guid: beaec58dba29dea48acd77235061579e, type: 3}
--- !u!4 &613510787
Transform:
  m_ObjectHideFlags: 0
  m_PrefabParentObject: {fileID: 4004029968314860, guid: b032703654057b84683de4e36d419b65,
    type: 2}
  m_PrefabInternal: {fileID: 1515519608}
  m_GameObject: {fileID: 613510782}
  m_LocalRotation: {x: 0.09967981, y: -0.62601477, z: 0.7686268, w: 0.08592103}
  m_LocalPosition: {x: -0.897, y: 0.231, z: 0.178}
  m_LocalScale: {x: 1, y: 1, z: 1}
  m_Children: []
  m_Father: {fileID: 0}
  m_RootOrder: 11
  m_LocalEulerAnglesHint: {x: 78.371, y: 13.091001, z: 177.93001}
--- !u!1 &660701030
GameObject:
  m_ObjectHideFlags: 0
  m_PrefabParentObject: {fileID: 0}
  m_PrefabInternal: {fileID: 0}
  serializedVersion: 5
  m_Component:
  - component: {fileID: 660701032}
  - component: {fileID: 660701031}
  m_Layer: 0
  m_Name: Point light
  m_TagString: Untagged
  m_Icon: {fileID: 0}
  m_NavMeshLayer: 0
  m_StaticEditorFlags: 0
  m_IsActive: 1
--- !u!108 &660701031
Light:
  m_ObjectHideFlags: 0
  m_PrefabParentObject: {fileID: 0}
  m_PrefabInternal: {fileID: 0}
  m_GameObject: {fileID: 660701030}
  m_Enabled: 1
  serializedVersion: 8
  m_Type: 2
  m_Color: {r: 1, g: 0.98458415, b: 0.9705882, a: 1}
  m_Intensity: 1
  m_Range: 15
  m_SpotAngle: 30
  m_CookieSize: 10
  m_Shadows:
    m_Type: 2
    m_Resolution: -1
    m_CustomResolution: -1
    m_Strength: 1
    m_Bias: 0.05
    m_NormalBias: 0.4
    m_NearPlane: 0.2
  m_Cookie: {fileID: 0}
  m_DrawHalo: 0
  m_Flare: {fileID: 0}
  m_RenderMode: 0
  m_CullingMask:
    serializedVersion: 2
    m_Bits: 4294967295
  m_Lightmapping: 1
  m_AreaSize: {x: 1, y: 1}
  m_BounceIntensity: 1
  m_ColorTemperature: 6570
  m_UseColorTemperature: 0
  m_ShadowRadius: 0
  m_ShadowAngle: 0
--- !u!4 &660701032
Transform:
  m_ObjectHideFlags: 0
  m_PrefabParentObject: {fileID: 0}
  m_PrefabInternal: {fileID: 0}
  m_GameObject: {fileID: 660701030}
  m_LocalRotation: {x: 0, y: 0, z: 0, w: 1}
  m_LocalPosition: {x: -0.23107862, y: 1.558, z: 0.362}
  m_LocalScale: {x: 1, y: 1, z: 1}
  m_Children: []
  m_Father: {fileID: 0}
  m_RootOrder: 10
  m_LocalEulerAnglesHint: {x: 0, y: 0, z: 0}
--- !u!1 &1064317048
GameObject:
  m_ObjectHideFlags: 0
  m_PrefabParentObject: {fileID: 1064486373640712, guid: 31d51183fe171274c9a9f9563c02aa40,
    type: 2}
  m_PrefabInternal: {fileID: 1921013461}
  serializedVersion: 5
  m_Component:
  - component: {fileID: 1064317053}
  - component: {fileID: 1064317052}
  - component: {fileID: 1064317051}
  - component: {fileID: 1064317050}
  - component: {fileID: 1064317049}
  m_Layer: 0
  m_Name: Leather_Chair_Frayed
  m_TagString: Untagged
  m_Icon: {fileID: 0}
  m_NavMeshLayer: 0
  m_StaticEditorFlags: 4294967295
  m_IsActive: 1
--- !u!64 &1064317049
MeshCollider:
  m_ObjectHideFlags: 0
  m_PrefabParentObject: {fileID: 64834734098533512, guid: 31d51183fe171274c9a9f9563c02aa40,
    type: 2}
  m_PrefabInternal: {fileID: 1921013461}
  m_GameObject: {fileID: 1064317048}
  m_Material: {fileID: 0}
  m_IsTrigger: 0
  m_Enabled: 1
  serializedVersion: 3
  m_Convex: 1
  m_CookingOptions: 15
  m_SkinWidth: 0.01
  m_Mesh: {fileID: 4300000, guid: beaec58dba29dea48acd77235061579e, type: 3}
--- !u!95 &1064317050
Animator:
  serializedVersion: 3
  m_ObjectHideFlags: 0
  m_PrefabParentObject: {fileID: 95245519991637256, guid: 31d51183fe171274c9a9f9563c02aa40,
    type: 2}
  m_PrefabInternal: {fileID: 1921013461}
  m_GameObject: {fileID: 1064317048}
  m_Enabled: 1
  m_Avatar: {fileID: 9000000, guid: beaec58dba29dea48acd77235061579e, type: 3}
  m_Controller: {fileID: 0}
  m_CullingMode: 0
  m_UpdateMode: 0
  m_ApplyRootMotion: 0
  m_LinearVelocityBlending: 0
  m_WarningMessage: 
  m_HasTransformHierarchy: 1
  m_AllowConstantClipSamplingOptimization: 1
--- !u!23 &1064317051
MeshRenderer:
  m_ObjectHideFlags: 0
  m_PrefabParentObject: {fileID: 23198476405552718, guid: 31d51183fe171274c9a9f9563c02aa40,
    type: 2}
  m_PrefabInternal: {fileID: 1921013461}
  m_GameObject: {fileID: 1064317048}
  m_Enabled: 1
  m_CastShadows: 1
  m_ReceiveShadows: 1
  m_DynamicOccludee: 1
  m_MotionVectors: 1
  m_LightProbeUsage: 1
  m_ReflectionProbeUsage: 1
  m_Materials:
  - {fileID: 2100000, guid: bb537ef8607d1d349b880bc682b9d4af, type: 2}
  m_StaticBatchInfo:
    firstSubMesh: 0
    subMeshCount: 0
  m_StaticBatchRoot: {fileID: 0}
  m_ProbeAnchor: {fileID: 0}
  m_LightProbeVolumeOverride: {fileID: 0}
  m_ScaleInLightmap: 1
  m_PreserveUVs: 0
  m_IgnoreNormalsForChartDetection: 0
  m_ImportantGI: 0
  m_StitchLightmapSeams: 0
  m_SelectedEditorRenderState: 3
  m_MinimumChartSize: 4
  m_AutoUVMaxDistance: 0.5
  m_AutoUVMaxAngle: 89
  m_LightmapParameters: {fileID: 0}
  m_SortingLayerID: 0
  m_SortingLayer: 0
  m_SortingOrder: 0
--- !u!33 &1064317052
MeshFilter:
  m_ObjectHideFlags: 0
  m_PrefabParentObject: {fileID: 33912463624227478, guid: 31d51183fe171274c9a9f9563c02aa40,
    type: 2}
  m_PrefabInternal: {fileID: 1921013461}
  m_GameObject: {fileID: 1064317048}
  m_Mesh: {fileID: 4300000, guid: beaec58dba29dea48acd77235061579e, type: 3}
--- !u!4 &1064317053
Transform:
  m_ObjectHideFlags: 0
  m_PrefabParentObject: {fileID: 4380726841685852, guid: 31d51183fe171274c9a9f9563c02aa40,
    type: 2}
  m_PrefabInternal: {fileID: 1921013461}
  m_GameObject: {fileID: 1064317048}
  m_LocalRotation: {x: 0.000000021813111, y: 0.06241212, z: -0.0000000013640591, w: 0.9980505}
  m_LocalPosition: {x: 0.018, y: 0.024, z: -0.062969446}
  m_LocalScale: {x: 1, y: 1, z: 1}
  m_Children: []
  m_Father: {fileID: 0}
  m_RootOrder: 1
  m_LocalEulerAnglesHint: {x: 0, y: 7.1570005, z: 0}
--- !u!1 &1112164539
GameObject:
  m_ObjectHideFlags: 0
  m_PrefabParentObject: {fileID: 1204303918740858, guid: b032703654057b84683de4e36d419b65,
    type: 2}
  m_PrefabInternal: {fileID: 1172171304}
  serializedVersion: 5
  m_Component:
  - component: {fileID: 1112164544}
  - component: {fileID: 1112164543}
  - component: {fileID: 1112164542}
  - component: {fileID: 1112164541}
  - component: {fileID: 1112164540}
  m_Layer: 0
  m_Name: Leather_Chair (2)
  m_TagString: Untagged
  m_Icon: {fileID: 0}
  m_NavMeshLayer: 0
  m_StaticEditorFlags: 4294967295
  m_IsActive: 1
--- !u!64 &1112164540
MeshCollider:
  m_ObjectHideFlags: 0
  m_PrefabParentObject: {fileID: 64441089882923944, guid: b032703654057b84683de4e36d419b65,
    type: 2}
  m_PrefabInternal: {fileID: 1172171304}
  m_GameObject: {fileID: 1112164539}
  m_Material: {fileID: 0}
  m_IsTrigger: 0
  m_Enabled: 1
  serializedVersion: 3
  m_Convex: 1
  m_CookingOptions: 15
  m_SkinWidth: 0.01
  m_Mesh: {fileID: 4300000, guid: beaec58dba29dea48acd77235061579e, type: 3}
--- !u!95 &1112164541
Animator:
  serializedVersion: 3
  m_ObjectHideFlags: 0
  m_PrefabParentObject: {fileID: 95493463368719108, guid: b032703654057b84683de4e36d419b65,
    type: 2}
  m_PrefabInternal: {fileID: 1172171304}
  m_GameObject: {fileID: 1112164539}
  m_Enabled: 1
  m_Avatar: {fileID: 9000000, guid: beaec58dba29dea48acd77235061579e, type: 3}
  m_Controller: {fileID: 0}
  m_CullingMode: 0
  m_UpdateMode: 0
  m_ApplyRootMotion: 0
  m_LinearVelocityBlending: 0
  m_WarningMessage: 
  m_HasTransformHierarchy: 1
  m_AllowConstantClipSamplingOptimization: 1
--- !u!23 &1112164542
MeshRenderer:
  m_ObjectHideFlags: 0
  m_PrefabParentObject: {fileID: 23063208507258850, guid: b032703654057b84683de4e36d419b65,
    type: 2}
  m_PrefabInternal: {fileID: 1172171304}
  m_GameObject: {fileID: 1112164539}
  m_Enabled: 1
  m_CastShadows: 1
  m_ReceiveShadows: 1
  m_DynamicOccludee: 1
  m_MotionVectors: 1
  m_LightProbeUsage: 1
  m_ReflectionProbeUsage: 1
  m_Materials:
  - {fileID: 2100000, guid: bb537ef8607d1d349b880bc682b9d4af, type: 2}
  m_StaticBatchInfo:
    firstSubMesh: 0
    subMeshCount: 0
  m_StaticBatchRoot: {fileID: 0}
  m_ProbeAnchor: {fileID: 0}
  m_LightProbeVolumeOverride: {fileID: 0}
  m_ScaleInLightmap: 1
  m_PreserveUVs: 0
  m_IgnoreNormalsForChartDetection: 0
  m_ImportantGI: 0
  m_StitchLightmapSeams: 0
  m_SelectedEditorRenderState: 3
  m_MinimumChartSize: 4
  m_AutoUVMaxDistance: 0.5
  m_AutoUVMaxAngle: 89
  m_LightmapParameters: {fileID: 0}
  m_SortingLayerID: 0
  m_SortingLayer: 0
  m_SortingOrder: 0
--- !u!33 &1112164543
MeshFilter:
  m_ObjectHideFlags: 0
  m_PrefabParentObject: {fileID: 33836906932623226, guid: b032703654057b84683de4e36d419b65,
    type: 2}
  m_PrefabInternal: {fileID: 1172171304}
  m_GameObject: {fileID: 1112164539}
  m_Mesh: {fileID: 4300000, guid: beaec58dba29dea48acd77235061579e, type: 3}
--- !u!4 &1112164544
Transform:
  m_ObjectHideFlags: 0
  m_PrefabParentObject: {fileID: 4004029968314860, guid: b032703654057b84683de4e36d419b65,
    type: 2}
  m_PrefabInternal: {fileID: 1172171304}
  m_GameObject: {fileID: 1112164539}
  m_LocalRotation: {x: -0.42400438, y: -0.56001383, z: 0.6470331, w: -0.29656875}
  m_LocalPosition: {x: 0.221, y: 0.245, z: -0.028}
  m_LocalScale: {x: 1, y: 1, z: 1}
  m_Children: []
  m_Father: {fileID: 0}
  m_RootOrder: 12
  m_LocalEulerAnglesHint: {x: 77.471, y: -86.509, z: 155.16301}
--- !u!1001 &1172171304
Prefab:
  m_ObjectHideFlags: 0
  serializedVersion: 2
  m_Modification:
    m_TransformParent: {fileID: 0}
    m_Modifications:
    - target: {fileID: 4004029968314860, guid: b032703654057b84683de4e36d419b65, type: 2}
      propertyPath: m_LocalPosition.x
      value: 0.221
      objectReference: {fileID: 0}
    - target: {fileID: 4004029968314860, guid: b032703654057b84683de4e36d419b65, type: 2}
      propertyPath: m_LocalPosition.y
      value: 0.245
      objectReference: {fileID: 0}
    - target: {fileID: 4004029968314860, guid: b032703654057b84683de4e36d419b65, type: 2}
      propertyPath: m_LocalPosition.z
      value: -0.028
      objectReference: {fileID: 0}
    - target: {fileID: 4004029968314860, guid: b032703654057b84683de4e36d419b65, type: 2}
      propertyPath: m_LocalRotation.x
      value: -0.42400438
      objectReference: {fileID: 0}
    - target: {fileID: 4004029968314860, guid: b032703654057b84683de4e36d419b65, type: 2}
      propertyPath: m_LocalRotation.y
      value: -0.56001383
      objectReference: {fileID: 0}
    - target: {fileID: 4004029968314860, guid: b032703654057b84683de4e36d419b65, type: 2}
      propertyPath: m_LocalRotation.z
      value: 0.6470331
      objectReference: {fileID: 0}
    - target: {fileID: 4004029968314860, guid: b032703654057b84683de4e36d419b65, type: 2}
      propertyPath: m_LocalRotation.w
      value: -0.29656875
      objectReference: {fileID: 0}
    - target: {fileID: 4004029968314860, guid: b032703654057b84683de4e36d419b65, type: 2}
      propertyPath: m_RootOrder
      value: 12
      objectReference: {fileID: 0}
    - target: {fileID: 1204303918740858, guid: b032703654057b84683de4e36d419b65, type: 2}
      propertyPath: m_Name
      value: Leather_Chair (2)
      objectReference: {fileID: 0}
    - target: {fileID: 4004029968314860, guid: b032703654057b84683de4e36d419b65, type: 2}
      propertyPath: m_LocalEulerAnglesHint.x
      value: 77.471
      objectReference: {fileID: 0}
    - target: {fileID: 4004029968314860, guid: b032703654057b84683de4e36d419b65, type: 2}
      propertyPath: m_LocalEulerAnglesHint.z
      value: 155.16301
      objectReference: {fileID: 0}
    - target: {fileID: 4004029968314860, guid: b032703654057b84683de4e36d419b65, type: 2}
      propertyPath: m_LocalEulerAnglesHint.y
      value: -86.509
      objectReference: {fileID: 0}
    - target: {fileID: 23063208507258850, guid: b032703654057b84683de4e36d419b65,
        type: 2}
      propertyPath: m_Materials.Array.data[0]
      value: 
      objectReference: {fileID: 2100000, guid: bb537ef8607d1d349b880bc682b9d4af, type: 2}
    m_RemovedComponents: []
  m_ParentPrefab: {fileID: 100100000, guid: b032703654057b84683de4e36d419b65, type: 2}
  m_RootGameObject: {fileID: 1112164539}
  m_IsPrefabParent: 0
--- !u!1001 &1400478136
Prefab:
  m_ObjectHideFlags: 0
  serializedVersion: 2
  m_Modification:
    m_TransformParent: {fileID: 0}
    m_Modifications:
    - target: {fileID: 4004029968314860, guid: b032703654057b84683de4e36d419b65, type: 2}
      propertyPath: m_LocalPosition.x
      value: -0.495
      objectReference: {fileID: 0}
    - target: {fileID: 4004029968314860, guid: b032703654057b84683de4e36d419b65, type: 2}
      propertyPath: m_LocalPosition.y
      value: 0.035
      objectReference: {fileID: 0}
    - target: {fileID: 4004029968314860, guid: b032703654057b84683de4e36d419b65, type: 2}
      propertyPath: m_LocalPosition.z
      value: -0.06783068
      objectReference: {fileID: 0}
    - target: {fileID: 4004029968314860, guid: b032703654057b84683de4e36d419b65, type: 2}
      propertyPath: m_LocalRotation.x
      value: 0.000000020616133
      objectReference: {fileID: 0}
    - target: {fileID: 4004029968314860, guid: b032703654057b84683de4e36d419b65, type: 2}
      propertyPath: m_LocalRotation.y
      value: 0.33198866
      objectReference: {fileID: 0}
    - target: {fileID: 4004029968314860, guid: b032703654057b84683de4e36d419b65, type: 2}
      propertyPath: m_LocalRotation.z
      value: -0.000000007255844
      objectReference: {fileID: 0}
    - target: {fileID: 4004029968314860, guid: b032703654057b84683de4e36d419b65, type: 2}
      propertyPath: m_LocalRotation.w
      value: 0.9432834
      objectReference: {fileID: 0}
    - target: {fileID: 4004029968314860, guid: b032703654057b84683de4e36d419b65, type: 2}
      propertyPath: m_RootOrder
      value: 2
      objectReference: {fileID: 0}
    - target: {fileID: 4004029968314860, guid: b032703654057b84683de4e36d419b65, type: 2}
      propertyPath: m_LocalEulerAnglesHint.y
      value: 38.779003
      objectReference: {fileID: 0}
    m_RemovedComponents: []
  m_ParentPrefab: {fileID: 100100000, guid: b032703654057b84683de4e36d419b65, type: 2}
  m_RootGameObject: {fileID: 515151475}
  m_IsPrefabParent: 0
--- !u!1 &1482957077
GameObject:
  m_ObjectHideFlags: 0
  m_PrefabParentObject: {fileID: 0}
  m_PrefabInternal: {fileID: 0}
  serializedVersion: 5
  m_Component:
  - component: {fileID: 1482957081}
  - component: {fileID: 1482957080}
  - component: {fileID: 1482957079}
  - component: {fileID: 1482957078}
  m_Layer: 0
  m_Name: Cube (4)
  m_TagString: Untagged
  m_Icon: {fileID: 0}
  m_NavMeshLayer: 0
  m_StaticEditorFlags: 4294967295
  m_IsActive: 1
--- !u!23 &1482957078
MeshRenderer:
  m_ObjectHideFlags: 0
  m_PrefabParentObject: {fileID: 0}
  m_PrefabInternal: {fileID: 0}
  m_GameObject: {fileID: 1482957077}
  m_Enabled: 1
  m_CastShadows: 1
  m_ReceiveShadows: 1
  m_DynamicOccludee: 1
  m_MotionVectors: 1
  m_LightProbeUsage: 1
  m_ReflectionProbeUsage: 1
  m_Materials:
  - {fileID: 2100000, guid: ecc662582beced44bbf6ea31834afb0e, type: 2}
  m_StaticBatchInfo:
    firstSubMesh: 0
    subMeshCount: 0
  m_StaticBatchRoot: {fileID: 0}
  m_ProbeAnchor: {fileID: 0}
  m_LightProbeVolumeOverride: {fileID: 0}
  m_ScaleInLightmap: 1
  m_PreserveUVs: 1
  m_IgnoreNormalsForChartDetection: 0
  m_ImportantGI: 0
  m_StitchLightmapSeams: 0
  m_SelectedEditorRenderState: 3
  m_MinimumChartSize: 4
  m_AutoUVMaxDistance: 0.5
  m_AutoUVMaxAngle: 89
  m_LightmapParameters: {fileID: 0}
  m_SortingLayerID: 0
  m_SortingLayer: 0
  m_SortingOrder: 0
--- !u!65 &1482957079
BoxCollider:
  m_ObjectHideFlags: 0
  m_PrefabParentObject: {fileID: 0}
  m_PrefabInternal: {fileID: 0}
  m_GameObject: {fileID: 1482957077}
  m_Material: {fileID: 0}
  m_IsTrigger: 0
  m_Enabled: 1
  serializedVersion: 2
  m_Size: {x: 1, y: 1, z: 1}
  m_Center: {x: 0, y: 0, z: 0}
--- !u!33 &1482957080
MeshFilter:
  m_ObjectHideFlags: 0
  m_PrefabParentObject: {fileID: 0}
  m_PrefabInternal: {fileID: 0}
  m_GameObject: {fileID: 1482957077}
  m_Mesh: {fileID: 10202, guid: 0000000000000000e000000000000000, type: 0}
--- !u!4 &1482957081
Transform:
  m_ObjectHideFlags: 0
  m_PrefabParentObject: {fileID: 0}
  m_PrefabInternal: {fileID: 0}
  m_GameObject: {fileID: 1482957077}
  m_LocalRotation: {x: 0, y: -1, z: 0, w: 0}
  m_LocalPosition: {x: -0.456, y: 1.974, z: 0.119}
  m_LocalScale: {x: 3.7149637, y: 0.062084492, z: 2.6065922}
  m_Children: []
  m_Father: {fileID: 0}
  m_RootOrder: 9
  m_LocalEulerAnglesHint: {x: 180, y: 0, z: 180}
--- !u!1 &1492631276
GameObject:
  m_ObjectHideFlags: 0
  m_PrefabParentObject: {fileID: 0}
  m_PrefabInternal: {fileID: 0}
  serializedVersion: 5
  m_Component:
  - component: {fileID: 1492631278}
  - component: {fileID: 1492631277}
  m_Layer: 0
  m_Name: Directional Light
  m_TagString: Untagged
  m_Icon: {fileID: 0}
  m_NavMeshLayer: 0
  m_StaticEditorFlags: 0
  m_IsActive: 1
--- !u!108 &1492631277
Light:
  m_ObjectHideFlags: 0
  m_PrefabParentObject: {fileID: 0}
  m_PrefabInternal: {fileID: 0}
  m_GameObject: {fileID: 1492631276}
  m_Enabled: 1
  serializedVersion: 8
  m_Type: 1
  m_Color: {r: 1, g: 0.99036515, b: 0.8602941, a: 1}
  m_Intensity: 1
  m_Range: 10
  m_SpotAngle: 30
  m_CookieSize: 10
  m_Shadows:
    m_Type: 2
    m_Resolution: -1
    m_CustomResolution: -1
    m_Strength: 1
    m_Bias: 0.05
    m_NormalBias: 0.4
    m_NearPlane: 0.2
  m_Cookie: {fileID: 0}
  m_DrawHalo: 0
  m_Flare: {fileID: 0}
  m_RenderMode: 0
  m_CullingMask:
    serializedVersion: 2
    m_Bits: 4294967295
  m_Lightmapping: 4
  m_AreaSize: {x: 1, y: 1}
  m_BounceIntensity: 1
  m_ColorTemperature: 6570
  m_UseColorTemperature: 0
  m_ShadowRadius: 0
  m_ShadowAngle: 0
--- !u!4 &1492631278
Transform:
  m_ObjectHideFlags: 0
  m_PrefabParentObject: {fileID: 0}
  m_PrefabInternal: {fileID: 0}
  m_GameObject: {fileID: 1492631276}
  m_LocalRotation: {x: 0.25317642, y: -0.72568005, z: 0.33839032, w: 0.5429385}
  m_LocalPosition: {x: 0, y: 3, z: 0}
  m_LocalScale: {x: 1, y: 1, z: 1}
  m_Children: []
  m_Father: {fileID: 0}
  m_RootOrder: 3
  m_LocalEulerAnglesHint: {x: 50.000004, y: -106.394005, z: 0}
--- !u!1001 &1515519608
Prefab:
  m_ObjectHideFlags: 0
  serializedVersion: 2
  m_Modification:
    m_TransformParent: {fileID: 0}
    m_Modifications:
    - target: {fileID: 4004029968314860, guid: b032703654057b84683de4e36d419b65, type: 2}
      propertyPath: m_LocalPosition.x
      value: -0.897
      objectReference: {fileID: 0}
    - target: {fileID: 4004029968314860, guid: b032703654057b84683de4e36d419b65, type: 2}
      propertyPath: m_LocalPosition.y
      value: 0.231
      objectReference: {fileID: 0}
    - target: {fileID: 4004029968314860, guid: b032703654057b84683de4e36d419b65, type: 2}
      propertyPath: m_LocalPosition.z
      value: 0.178
      objectReference: {fileID: 0}
    - target: {fileID: 4004029968314860, guid: b032703654057b84683de4e36d419b65, type: 2}
      propertyPath: m_LocalRotation.x
      value: 0.09967981
      objectReference: {fileID: 0}
    - target: {fileID: 4004029968314860, guid: b032703654057b84683de4e36d419b65, type: 2}
      propertyPath: m_LocalRotation.y
      value: -0.62601477
      objectReference: {fileID: 0}
    - target: {fileID: 4004029968314860, guid: b032703654057b84683de4e36d419b65, type: 2}
      propertyPath: m_LocalRotation.z
      value: 0.7686268
      objectReference: {fileID: 0}
    - target: {fileID: 4004029968314860, guid: b032703654057b84683de4e36d419b65, type: 2}
      propertyPath: m_LocalRotation.w
      value: 0.08592103
      objectReference: {fileID: 0}
    - target: {fileID: 4004029968314860, guid: b032703654057b84683de4e36d419b65, type: 2}
      propertyPath: m_RootOrder
      value: 11
      objectReference: {fileID: 0}
    - target: {fileID: 1204303918740858, guid: b032703654057b84683de4e36d419b65, type: 2}
      propertyPath: m_Name
      value: Leather_Chair (1)
      objectReference: {fileID: 0}
    - target: {fileID: 4004029968314860, guid: b032703654057b84683de4e36d419b65, type: 2}
      propertyPath: m_LocalEulerAnglesHint.x
      value: 78.371
      objectReference: {fileID: 0}
    - target: {fileID: 4004029968314860, guid: b032703654057b84683de4e36d419b65, type: 2}
      propertyPath: m_LocalEulerAnglesHint.z
      value: 177.93001
      objectReference: {fileID: 0}
    - target: {fileID: 4004029968314860, guid: b032703654057b84683de4e36d419b65, type: 2}
      propertyPath: m_LocalEulerAnglesHint.y
      value: 13.091001
      objectReference: {fileID: 0}
    m_RemovedComponents: []
  m_ParentPrefab: {fileID: 100100000, guid: b032703654057b84683de4e36d419b65, type: 2}
  m_RootGameObject: {fileID: 613510782}
  m_IsPrefabParent: 0
--- !u!1 &1723880709
GameObject:
  m_ObjectHideFlags: 0
  m_PrefabParentObject: {fileID: 0}
  m_PrefabInternal: {fileID: 0}
  serializedVersion: 5
  m_Component:
  - component: {fileID: 1723880713}
  - component: {fileID: 1723880712}
  - component: {fileID: 1723880711}
  - component: {fileID: 1723880710}
  m_Layer: 0
  m_Name: Cube
  m_TagString: Untagged
  m_Icon: {fileID: 0}
  m_NavMeshLayer: 0
  m_StaticEditorFlags: 4294967295
  m_IsActive: 1
--- !u!23 &1723880710
MeshRenderer:
  m_ObjectHideFlags: 0
  m_PrefabParentObject: {fileID: 0}
  m_PrefabInternal: {fileID: 0}
  m_GameObject: {fileID: 1723880709}
  m_Enabled: 1
  m_CastShadows: 1
  m_ReceiveShadows: 1
  m_DynamicOccludee: 1
  m_MotionVectors: 1
  m_LightProbeUsage: 1
  m_ReflectionProbeUsage: 1
  m_Materials:
  - {fileID: 2100000, guid: 706e7f5d9d1538c4b8858f068138b547, type: 2}
  m_StaticBatchInfo:
    firstSubMesh: 0
    subMeshCount: 0
  m_StaticBatchRoot: {fileID: 0}
  m_ProbeAnchor: {fileID: 0}
  m_LightProbeVolumeOverride: {fileID: 0}
  m_ScaleInLightmap: 1
  m_PreserveUVs: 1
  m_IgnoreNormalsForChartDetection: 0
  m_ImportantGI: 0
  m_StitchLightmapSeams: 0
  m_SelectedEditorRenderState: 3
  m_MinimumChartSize: 4
  m_AutoUVMaxDistance: 0.5
  m_AutoUVMaxAngle: 89
  m_LightmapParameters: {fileID: 0}
  m_SortingLayerID: 0
  m_SortingLayer: 0
  m_SortingOrder: 0
--- !u!65 &1723880711
BoxCollider:
  m_ObjectHideFlags: 0
  m_PrefabParentObject: {fileID: 0}
  m_PrefabInternal: {fileID: 0}
  m_GameObject: {fileID: 1723880709}
  m_Material: {fileID: 0}
  m_IsTrigger: 0
  m_Enabled: 1
  serializedVersion: 2
  m_Size: {x: 1, y: 1, z: 1}
  m_Center: {x: 0, y: 0, z: 0}
--- !u!33 &1723880712
MeshFilter:
  m_ObjectHideFlags: 0
  m_PrefabParentObject: {fileID: 0}
  m_PrefabInternal: {fileID: 0}
  m_GameObject: {fileID: 1723880709}
  m_Mesh: {fileID: 10202, guid: 0000000000000000e000000000000000, type: 0}
--- !u!4 &1723880713
Transform:
  m_ObjectHideFlags: 0
  m_PrefabParentObject: {fileID: 0}
  m_PrefabInternal: {fileID: 0}
  m_GameObject: {fileID: 1723880709}
  m_LocalRotation: {x: 0, y: 0, z: 0, w: 1}
  m_LocalPosition: {x: -0.349, y: 0, z: 0.276}
  m_LocalScale: {x: 3.47947, y: 0.051396314, z: 1.4632033}
  m_Children: []
  m_Father: {fileID: 0}
  m_RootOrder: 4
  m_LocalEulerAnglesHint: {x: 0, y: 0, z: 0}
--- !u!1001 &1921013461
Prefab:
  m_ObjectHideFlags: 0
  serializedVersion: 2
  m_Modification:
    m_TransformParent: {fileID: 0}
    m_Modifications:
    - target: {fileID: 4380726841685852, guid: 31d51183fe171274c9a9f9563c02aa40, type: 2}
      propertyPath: m_LocalPosition.x
      value: 0.018
      objectReference: {fileID: 0}
    - target: {fileID: 4380726841685852, guid: 31d51183fe171274c9a9f9563c02aa40, type: 2}
      propertyPath: m_LocalPosition.y
      value: 0.024
      objectReference: {fileID: 0}
    - target: {fileID: 4380726841685852, guid: 31d51183fe171274c9a9f9563c02aa40, type: 2}
      propertyPath: m_LocalPosition.z
      value: -0.062969446
      objectReference: {fileID: 0}
    - target: {fileID: 4380726841685852, guid: 31d51183fe171274c9a9f9563c02aa40, type: 2}
      propertyPath: m_LocalRotation.x
      value: 0.000000021813111
      objectReference: {fileID: 0}
    - target: {fileID: 4380726841685852, guid: 31d51183fe171274c9a9f9563c02aa40, type: 2}
      propertyPath: m_LocalRotation.y
      value: 0.06241212
      objectReference: {fileID: 0}
    - target: {fileID: 4380726841685852, guid: 31d51183fe171274c9a9f9563c02aa40, type: 2}
      propertyPath: m_LocalRotation.z
      value: -0.0000000013640591
      objectReference: {fileID: 0}
    - target: {fileID: 4380726841685852, guid: 31d51183fe171274c9a9f9563c02aa40, type: 2}
      propertyPath: m_LocalRotation.w
      value: 0.9980505
      objectReference: {fileID: 0}
    - target: {fileID: 4380726841685852, guid: 31d51183fe171274c9a9f9563c02aa40, type: 2}
      propertyPath: m_RootOrder
      value: 1
      objectReference: {fileID: 0}
    - target: {fileID: 4380726841685852, guid: 31d51183fe171274c9a9f9563c02aa40, type: 2}
      propertyPath: m_LocalEulerAnglesHint.y
      value: 7.1570005
      objectReference: {fileID: 0}
    m_RemovedComponents: []
  m_ParentPrefab: {fileID: 100100000, guid: 31d51183fe171274c9a9f9563c02aa40, type: 2}
  m_RootGameObject: {fileID: 1064317048}
  m_IsPrefabParent: 0
--- !u!1 &1925323931
GameObject:
  m_ObjectHideFlags: 0
  m_PrefabParentObject: {fileID: 0}
  m_PrefabInternal: {fileID: 0}
  serializedVersion: 5
  m_Component:
  - component: {fileID: 1925323935}
  - component: {fileID: 1925323934}
  - component: {fileID: 1925323933}
  - component: {fileID: 1925323932}
  m_Layer: 0
  m_Name: Cube (3)
  m_TagString: Untagged
  m_Icon: {fileID: 0}
  m_NavMeshLayer: 0
  m_StaticEditorFlags: 4294967295
  m_IsActive: 1
--- !u!23 &1925323932
MeshRenderer:
  m_ObjectHideFlags: 0
  m_PrefabParentObject: {fileID: 0}
  m_PrefabInternal: {fileID: 0}
  m_GameObject: {fileID: 1925323931}
  m_Enabled: 1
  m_CastShadows: 1
  m_ReceiveShadows: 1
  m_DynamicOccludee: 1
  m_MotionVectors: 1
  m_LightProbeUsage: 1
  m_ReflectionProbeUsage: 1
  m_Materials:
  - {fileID: 2100000, guid: ecc662582beced44bbf6ea31834afb0e, type: 2}
  m_StaticBatchInfo:
    firstSubMesh: 0
    subMeshCount: 0
  m_StaticBatchRoot: {fileID: 0}
  m_ProbeAnchor: {fileID: 0}
  m_LightProbeVolumeOverride: {fileID: 0}
  m_ScaleInLightmap: 1
  m_PreserveUVs: 1
  m_IgnoreNormalsForChartDetection: 0
  m_ImportantGI: 0
  m_StitchLightmapSeams: 0
  m_SelectedEditorRenderState: 3
  m_MinimumChartSize: 4
  m_AutoUVMaxDistance: 0.5
  m_AutoUVMaxAngle: 89
  m_LightmapParameters: {fileID: 0}
  m_SortingLayerID: 0
  m_SortingLayer: 0
  m_SortingOrder: 0
--- !u!65 &1925323933
BoxCollider:
  m_ObjectHideFlags: 0
  m_PrefabParentObject: {fileID: 0}
  m_PrefabInternal: {fileID: 0}
  m_GameObject: {fileID: 1925323931}
  m_Material: {fileID: 0}
  m_IsTrigger: 0
  m_Enabled: 1
  serializedVersion: 2
  m_Size: {x: 1, y: 1, z: 1}
  m_Center: {x: 0, y: 0, z: 0}
--- !u!33 &1925323934
MeshFilter:
  m_ObjectHideFlags: 0
  m_PrefabParentObject: {fileID: 0}
  m_PrefabInternal: {fileID: 0}
  m_GameObject: {fileID: 1925323931}
  m_Mesh: {fileID: 10202, guid: 0000000000000000e000000000000000, type: 0}
--- !u!4 &1925323935
Transform:
  m_ObjectHideFlags: 0
  m_PrefabParentObject: {fileID: 0}
  m_PrefabInternal: {fileID: 0}
  m_GameObject: {fileID: 1925323931}
  m_LocalRotation: {x: 0.50000006, y: -0.50000006, z: 0.5, w: 0.5}
  m_LocalPosition: {x: 1.37, y: 1.184, z: -0.507}
  m_LocalScale: {x: 3.7149637, y: 0.062084492, z: 2.6065922}
  m_Children: []
  m_Father: {fileID: 0}
  m_RootOrder: 8
  m_LocalEulerAnglesHint: {x: 90.00001, y: 0, z: 90}
--- !u!1 &2000595810
GameObject:
  m_ObjectHideFlags: 0
  m_PrefabParentObject: {fileID: 0}
  m_PrefabInternal: {fileID: 0}
  serializedVersion: 5
  m_Component:
  - component: {fileID: 2000595815}
  - component: {fileID: 2000595814}
  - component: {fileID: 2000595813}
  - component: {fileID: 2000595812}
  - component: {fileID: 2000595811}
  m_Layer: 0
  m_Name: Main Camera
  m_TagString: MainCamera
  m_Icon: {fileID: 0}
  m_NavMeshLayer: 0
  m_StaticEditorFlags: 0
  m_IsActive: 1
--- !u!81 &2000595811
AudioListener:
  m_ObjectHideFlags: 0
  m_PrefabParentObject: {fileID: 0}
  m_PrefabInternal: {fileID: 0}
  m_GameObject: {fileID: 2000595810}
  m_Enabled: 1
--- !u!124 &2000595812
Behaviour:
  m_ObjectHideFlags: 0
  m_PrefabParentObject: {fileID: 0}
  m_PrefabInternal: {fileID: 0}
  m_GameObject: {fileID: 2000595810}
  m_Enabled: 1
--- !u!92 &2000595813
Behaviour:
  m_ObjectHideFlags: 0
  m_PrefabParentObject: {fileID: 0}
  m_PrefabInternal: {fileID: 0}
  m_GameObject: {fileID: 2000595810}
  m_Enabled: 1
--- !u!20 &2000595814
Camera:
  m_ObjectHideFlags: 0
  m_PrefabParentObject: {fileID: 0}
  m_PrefabInternal: {fileID: 0}
  m_GameObject: {fileID: 2000595810}
  m_Enabled: 1
  serializedVersion: 2
  m_ClearFlags: 1
  m_BackGroundColor: {r: 0.19215687, g: 0.3019608, b: 0.4745098, a: 0}
  m_NormalizedViewPortRect:
    serializedVersion: 2
    x: 0
    y: 0
    width: 1
    height: 1
  near clip plane: 0.3
  far clip plane: 1000
  field of view: 60
  orthographic: 0
  orthographic size: 5
  m_Depth: -1
  m_CullingMask:
    serializedVersion: 2
    m_Bits: 4294967295
  m_RenderingPath: -1
  m_TargetTexture: {fileID: 0}
  m_TargetDisplay: 0
  m_TargetEye: 3
  m_HDR: 1
  m_AllowMSAA: 1
  m_AllowDynamicResolution: 0
  m_ForceIntoRT: 0
  m_OcclusionCulling: 1
  m_StereoConvergence: 10
  m_StereoSeparation: 0.022
--- !u!4 &2000595815
Transform:
  m_ObjectHideFlags: 0
  m_PrefabParentObject: {fileID: 0}
  m_PrefabInternal: {fileID: 0}
  m_GameObject: {fileID: 2000595810}
  m_LocalRotation: {x: 0.026222717, y: -0.9693955, z: 0.13927105, w: 0.2004705}
  m_LocalPosition: {x: 0.295, y: 0.451, z: 0.542}
  m_LocalScale: {x: 1, y: 1, z: 1}
  m_Children: []
  m_Father: {fileID: 0}
  m_RootOrder: 0
  m_LocalEulerAnglesHint: {x: 16.292002, y: -156.589, z: 0.298}
